{
  "name": "",
  "css_prefix_text": "icon-",
  "css_use_suffix": false,
  "hinting": true,
  "units_per_em": 1000,
  "ascent": 850,
  "glyphs": [
    {
      "uid": "243424d56528e83e4fe9ef6e6347a2ef",
      "css": "rouble",
      "code": 61784,
      "src": "fontawesome"
    },
    {
      "uid": "529bb905374c62523eb22e235360e09b",
      "css": "metka",
      "code": 59392,
      "src": "custom_icons",
      "selected": true,
      "svg": {
        "path": "M313 437C313 334 397 250 500 250 604 250 688 334 688 437 688 541 604 625 500 625 397 625 313 541 313 437ZM500 375C466 375 438 403 438 437 438 472 466 500 500 500 535 500 563 472 563 437 563 403 535 375 500 375ZM500 125C327 125 188 265 188 437 188 571 255 681 333 760 372 799 413 829 447 849 464 859 478 866 489 870 494 872 498 873 500 874 502 873 506 872 511 870 522 866 536 859 553 849 587 829 628 799 667 760 745 681 813 571 813 437 813 265 673 125 500 125ZM63 437C63 196 259 0 500 0 742 0 938 196 938 437 938 615 848 755 755 848 708 895 659 932 617 957 596 969 575 979 557 986 541 993 520 999 500 999 480 999 459 993 443 986 425 979 405 969 383 957 341 932 292 895 245 848 152 755 63 615 63 437Z",
        "width": 1000
      },
      "search": [
        "metka"
      ]
    },
    {
      "uid": "59aadad11ce9b3925b6e5a34447d099e",
      "css": "left-open-big",
      "code": 59393,
      "src": "custom_icons",
      "selected": true,
      "svg": {
        "path": "M452 870Q478 896 452 918 426 944 404 918L12 524Q-12 500 12 474L404 80Q426 54 452 80 478 102 452 128L94 500Z",
        "width": 465
      },
      "search": [
        "left-open-big"
      ]
    },
    {
      "uid": "f915c4849d6043f107c498aab448497b",
      "css": "right-open-big",
      "code": 59394,
      "src": "custom_icons",
      "selected": true,
      "svg": {
        "path": "M13 870L371 500 13 128Q-13 102 13 80 39 54 61 80L453 474Q477 500 453 524L61 918Q39 944 13 918-13 896 13 870Z",
        "width": 465
      },
      "search": [
        "right-open-big"
      ]
    },
    {
      "uid": "a53b0f92851dc8528f587c7e0a3bf9f3",
      "css": "vk",
      "code": 59395,
      "src": "custom_icons",
      "selected": true,
      "svg": {
        "path": "M0 196Q10 188 25 184 39 180 50 180L59 180Q69 180 83 181 105 182 115 182 121 182 153 180 169 179 182 179T205 180Q225 182 237 188 243 191 250 201T262 220 273 245 283 267Q321 349 377 430 379 433 384 441T393 453 402 465 412 476 423 484 434 490 446 490Q474 485 477 373 478 354 478 338 478 264 463 236 457 225 448 218T423 206 400 196Q414 168 450 159T546 150L599 150T625 150 652 153L674 159T694 168 706 182Q715 200 717 224 717 231 718 238 718 258 715 290 711 332 711 342 708 365 708 388 708 406 710 426 714 470 740 487 749 486 757 483T772 472 783 460 796 444 806 430Q853 368 900 267L909 244T921 218 933 198 948 185Q964 178 986 178L995 178Q1015 178 1041 180 1073 182 1088 182 1097 182 1116 181T1148 179 1178 180 1203 186 1217 199Q1220 205 1220 212 1220 241 1185 299 1168 328 1151 351T1105 409 1068 456Q1066 458 1054 474T1037 498 1025 520 1020 547Q1020 555 1023 562T1033 577 1043 589 1056 602 1068 613Q1139 678 1180 730 1220 782 1220 805 1220 838 1169 846 1143 850 1116 850 1095 850 1073 847 1053 845 1036 845 1010 845 991 850L985 850Q919 839 846 756 842 752 829 735T807 710 784 693 757 687Q734 691 727 716T718 775 708 824Q695 848 629 848 601 848 563 844 485 836 422 804T321 736 240 644Q136 511 43 322 40 316 32 299T20 274 11 250 3 222 0 196Z",
        "width": 1220
      },
      "search": [
        "vk"
      ]
    },
    {
      "uid": "9c1e00a463b13ee58d589bb588667c2b",
      "css": "ok",
      "code": 59396,
      "src": "custom_icons",
      "selected": true,
      "svg": {
        "path": "M933 316Q933 338 917 354L513 758 437 834Q421 849 399 849T361 834L285 758 83 556Q68 540 68 518T83 480L159 404Q175 388 197 388T235 404L399 569 765 202Q781 186 803 186T841 202L917 278Q933 293 933 316Z",
        "width": 1000
      },
      "search": [
        "ok"
      ]
    },
    {
      "uid": "1324b7c08db40ed0ca930706b0325a38",
      "css": "play",
      "code": 59397,
      "src": "custom_icons",
      "selected": true,
      "svg": {
        "path": "M772 517L31 929Q18 936 9 931T0 911V89Q0 75 9 69T31 71L772 483Q785 490 785 500T772 517Z",
        "width": 785.7
      },
      "search": [
        "play"
      ]
    },
    {
      "uid": "0d3814d34dbb471cadd32c16d9e4039c",
      "css": "phone",
      "code": 59398,
      "src": "custom_icons",
      "selected": true,
      "svg": {
        "path": "M0 235Q0 185 28 159L166 21Q211-16 243 34L356 245Q374 284 342 316L291 368Q286 374 286 382 311 480 418 577L449 607T485 641 519 667 560 692 600 706Q620 712 627 704L688 644Q727 614 760 632L963 753Q985 767 988 790T975 829L834 968Q807 995 760 995 620 991 442 874 184 689 67 468-5 317 0 235Z",
        "width": 988
      },
      "search": [
        "phone"
      ]
    },
    {
      "uid": "a3fbec00c52ae9e4e9d3c70d8e2199f0",
      "css": "mail-1",
      "code": 59399,
      "src": "custom_icons",
      "selected": true,
      "svg": {
        "path": "M0 250C0 181 56 125 125 125H875C944 125 1000 181 1000 250V750C1000 819 944 875 875 875H125C56 875 0 819 0 750V250ZM875 250H125V750H875V250ZM77 210C99 184 139 180 165 202L500 481 835 202C862 180 901 184 923 210 945 237 942 276 915 298L540 610C517 630 483 630 460 610L85 298C59 276 55 237 77 210Z",
        "width": 1000
      },
      "search": [
        "mail-1"
      ]
    },
    {
      "uid": "e4a04be56fffea6cd8b5ed6bd8ed53f9",
      "css": "clock",
      "code": 59400,
      "src": "custom_icons",
      "selected": true,
      "svg": {
        "path": "M460 40Q650 40 785 175T920 500 785 825 460 960 135 825 0 500 135 175 460 40ZM460 860Q610 860 715 754T820 500Q820 350 715 245T460 140Q312 140 206 245T100 500Q100 648 206 754T460 860ZM496 240L496 484 646 634 596 684 426 514 426 240 496 240Z",
        "width": 920
      },
      "search": [
        "clock"
      ]
    },
    {
      "uid": "5f30cb253faac0034318baa32f0714ff",
      "css": "down-open-big",
      "code": 59403,
      "src": "custom_icons",
      "selected": true,
      "svg": {
        "path": "M63 280L433 636 805 280Q827 254 853 280 879 302 853 328L457 720Q435 742 409 720L13 328Q-13 302 13 280 37 256 63 280Z",
        "width": 866
      },
      "search": [
        "down-open-big"
      ]
    },
    {
      "uid": "fbed204692488cdeee8bd377abe21c30",
      "css": "file",
      "code": 59406,
      "src": "custom_icons",
      "selected": true,
      "svg": {
        "path": "M193 24C231 8 272 0 313 0 354 0 394 8 432 24 470 39 505 62 534 91L489 136 534 91C563 120 586 155 601 193 617 231 625 271 625 312V562C625 587 620 611 611 634 601 657 588 678 570 695 553 712 532 726 509 736 487 745 462 750 438 750 413 750 389 745 366 736 343 726 322 712 305 695 288 678 274 657 264 634 255 611 250 587 250 562V375C250 340 278 312 313 312 347 312 375 340 375 375L375 562C375 571 377 579 380 586 383 594 388 601 393 607 399 612 406 617 414 620 421 623 429 625 438 625 446 625 454 623 461 620 469 617 476 612 482 607L523 648 482 607C488 601 492 594 495 586 498 579 500 571 500 562L500 312C500 288 495 263 486 241 476 218 463 197 445 180 428 162 407 149 384 139 362 130 337 125 313 125 288 125 264 130 241 139 218 149 197 162 180 180 163 197 149 218 139 241 130 263 125 288 125 312L125 562C125 645 158 725 217 783 275 842 355 875 438 875 520 875 600 842 659 783 717 725 750 645 750 562V375C750 340 778 312 813 312 847 312 875 340 875 375V562C875 678 829 790 747 872 665 954 554 1000 438 1000 322 1000 210 954 128 872 46 790 0 678 0 562L0 312C0 271 8 231 24 193 40 155 63 120 92 91 121 62 155 39 193 24Z",
        "width": 875
      },
      "search": [
        "file"
      ]
    },
    {
      "uid": "c0e36323e502559f4fb008d0a9022844",
      "css": "mark",
      "code": 59408,
      "src": "custom_icons",
      "selected": true,
      "svg": {
        "path": "M710 710C869 551 869 294 710 135 552-24 294-24 135 135-24 294-24 551 135 710L423 998 710 710Z",
        "width": 831
      },
      "search": [
        "mark"
      ]
    },
    {
      "uid": "2a7130add4a42676647d71c7143298f1",
      "css": "marker",
      "code": 59409,
      "src": "custom_icons",
      "selected": true,
      "svg": {
        "path": "M1560 80C1626 168 1608 294 1520 360L720 960C640 1019 529 1011 459 941L59 541C-20 463-20 337 59 258 137 180 263 180 341 258L619 536 1280 40C1368-26 1494-8 1560 80Z",
        "width": 1600
      },
      "search": [
        "marker"
      ]
    },
    {
      "uid": "1c7c46d3af7328c413ba7356455b6f0b",
      "css": "mail",
      "code": 59410,
      "src": "custom_icons",
      "selected": true,
      "svg": {
        "path": "M105 5H1257Q1300 5 1331 36T1362 110V895Q1362 939 1331 970T1257 1000H105Q62 1000 31 970T0 895V110Q0 67 31 36T105 5ZM174 162L681 585 1188 162H174ZM157 843H1205V285L711 697H650L157 285V843Z",
        "width": 1360
      },
      "search": [
        "mail"
      ]
    },
    {
      "uid": "bdc9c88ba16e539d6847f146ad44d69a",
      "css": "location-outline",
      "code": 59411,
      "src": "custom_icons",
      "selected": true,
      "svg": {
        "path": "M416 109Q288 109 195 199 104 287 104 415 104 541 195 630L416 849 639 630Q729 542 729 415 729 286 639 199 546 109 416 109ZM416 5Q590 5 711 125T833 415 711 705L416 995 123 705Q0 585 0 415T123 125 416 5ZM416 291Q364 291 325 330T286 422 325 514Q363 551 416 551 471 551 509 514 548 475 548 422T509 330 416 291ZM416 239Q491 239 545 292T599 421 545 550 416 604 288 550 234 421 288 292 416 239Z",
        "width": 833
      },
      "search": [
        "location-outline"
      ]
    },
    {
      "uid": "3d39e83729acaab0b291e89e4a3d64ba",
      "css": "circle",
      "code": 61713,
      "src": "custom_icons",
      "selected": true,
      "svg": {
        "path": "M857 500Q857 617 800 715T644 871 429 929 213 871 58 715 0 500 58 285 213 129 429 71 644 129 800 285 857 500Z",
        "width": 857.1
      },
      "search": [
        "circle"
      ]
    },
    {
      "uid": "893ddf3378c8f62a1b4a4989732220b6",
      "css": "youtube-play",
      "code": 61802,
      "src": "custom_icons",
      "selected": true,
      "svg": {
        "path": "M397 629L667 490 397 349V629ZM500 148Q594 148 681 151T809 156L850 158Q850 158 859 159T872 161 885 163 901 168 917 175 934 186 950 201Q954 204 959 211T975 244 990 300Q994 336 997 376T1000 440V538Q1001 619 990 700 986 730 976 755T958 790L950 799Q943 807 934 814T917 824 901 831 885 836 872 838 859 840 850 841Q710 852 500 852 385 850 299 848T188 844L160 841 140 839Q120 836 110 834T81 822 50 799Q46 796 41 789T25 756 10 700Q6 664 3 624T0 560V462Q-1 381 10 300 14 269 24 245T42 210L50 201Q58 192 66 186T83 175 99 168 115 163 128 161 141 159 150 158Q290 148 500 148Z",
        "width": 1000
      },
      "search": [
        "youtube-play"
      ]
    },
    {
      "uid": "c5453a6755835cc10e36bba798e78eb2",
      "css": "search-1",
      "code": 59401,
      "src": "custom_icons",
      "selected": true,
      "svg": {
        "path": "M994.4 934.4L703.9 643.9A396.3 396.3 0 1 0 645 702.8L935.4 993.3A20.9 20.9 0 0 0 964.9 993.3L994.4 963.8A20.9 20.9 0 0 0 994.4 934.4ZM396.1 707.7A312.5 312.5 0 1 1 708.6 395.2 312.9 312.9 0 0 1 396.3 707.7Z",
        "width": 1000
      },
      "search": [
        "search"
      ]
    },
    {
      "uid": "3bb97e03c1a59eadc2e2dc72c4347658",
      "css": "instagram",
      "code": 59413,
      "src": "custom_icons",
      "selected": true,
      "svg": {
        "path": "M690 500Q690 474 684 450L860 450 860 794Q860 850 821 890T726 930L134 930Q78 930 39 890T0 794L0 450 174 450Q170 482 170 500 170 606 246 683T430 760Q536 760 613 683T690 500ZM726 70Q782 70 821 109T860 204L860 350 642 350Q564 240 430 240 292 240 218 350L0 350 0 204Q0 148 39 109T134 70L726 70ZM790 236L790 164Q790 140 766 140L694 140Q670 140 670 164L670 236Q670 244 677 252T694 260L766 260Q790 260 790 236ZM590 500Q590 566 543 613T430 660 317 613 270 500Q270 432 317 386T430 340 543 386 590 500Z",
        "width": 860
      },
      "search": [
        "instagram"
      ]
    },
    {
      "uid": "894cc1b531fb864094a352f6ea5602b9",
      "css": "search",
      "code": 59402,
      "src": "custom_icons",
      "selected": false,
      "svg": {
        "path": "M746 641L1000 896 895 1001 641 747Q535 819 409 819 240 819 120 699T0 410 120 121 409 1 698 121 818 410Q818 537 746 641ZM681 410Q681 297 602 217T409 137 216 217 136 410 216 602 409 682 602 602 681 410Z",
        "width": 1000
      },
      "search": [
        "search"
      ]
    },
    {
      "uid": "abdbc5d41bd15bc1e559f251ed838cc6",
      "css": "grom",
      "code": 59407,
      "src": "custom_icons",
      "selected": false,
      "svg": {
        "path": "M625 63L63 562H375L313 937 813 437H563L625 63Z",
        "width": 875
      },
      "search": [
        "grom"
      ]
    },
    {
      "uid": "5e9a6d829b613db2b1369d74b52100b4",
      "css": "insta",
      "code": 62253,
      "src": "custom_icons",
      "selected": false,
      "svg": {
        "path": "M294 3C347 1 364 0 500 0H500C636 0 653 1 706 3 759 5 796 14 828 26 860 39 888 56 916 84 944 112 961 140 974 172 986 204 995 241 997 294 999 347 1000 364 1000 500 1000 636 999 653 997 706 995 759 986 796 974 827 961 860 944 888 916 916 888 944 860 961 828 974 796 986 759 995 706 997 653 999 636 1000 500 1000 364 1000 347 999 294 997 241 995 204 986 173 974 140 961 112 944 84 916 56 888 39 860 26 827 14 796 6 759 3 706 1 653 0 636 0 500 0 364 1 347 3 294 5 241 14 204 26 172 39 140 56 112 84 84 112 56 140 39 173 26 204 14 241 5 294 3ZM707 233C707 200 734 173 767 173V173C800 173 827 200 827 233 827 266 800 293 767 293 734 293 707 266 707 233ZM500 243C358 243 243 358 243 500 243 642 358 757 500 757 642 757 757 642 757 500 757 358 642 243 500 243ZM667 500C667 408 592 333 500 333 408 333 333 408 333 500 333 592 408 667 500 667 592 667 667 592 667 500Z",
        "width": 1000
      },
      "search": [
        "insta"
      ]
    }
  ]
}